<?xml version="1.0" encoding="utf-8"?>
<!-- Generator: Adobe Illustrator 23.1.0, SVG Export Plug-In . SVG Version: 6.00 Build 0)  -->
<svg version="1.1" id="Ebene_1" xmlns="http://www.w3.org/2000/svg" xmlns:xlink="http://www.w3.org/1999/xlink" x="0px" y="0px"
	 viewBox="0 0 300 300" style="enable-background:new 0 0 300 300;" xml:space="preserve">
<style type="text/css">
	.st0{fill:none;stroke:#8C8B8B;stroke-width:40;stroke-miterlimit:10;}
	.st1{fill:none;stroke:#68C3EA;stroke-width:40;stroke-miterlimit:10;}
	.st2{fill:none;stroke:#FF9240;stroke-width:40;stroke-miterlimit:10;}
</style>
<path class="st0" d="M59.13,59.46c-50.57,50.57-50.57,132.57,0,183.14"/>
<path class="st1" d="M240.8,242.26c50.57-50.57,50.57-132.57,0-183.14"/>
<path class="st2" d="M241.7,60.03c-50.57-50.57-132.57-50.57-183.14,0"/>
</svg>
